AMP_Modulation/TEK00000.CSV

Model,TBS2074B
Firmware Version,v1.31.16

Point Format,Y,,,,Point Format,Y
Horizontal Units,S,,,,Horizontal Units,S
Horizontal Scale,2e-05,,,,Horizontal Scale,0.0002
Sample Interval,0,,,,Sample Interval,1.6e-06
Filter Frequency,2e+08,,,,Filter Frequency,2e+08
Record Length,2000,,,,Record Length,2000
Gating,0.0% to 100.0%,0.0% to 100.0%,0.0% to 100.0%,,Gating,0.0% to 100.0%
Probe Attenuation,1,1,1,,Probe Attenuation,1
Vertical Units,V,V,V,,Vertical Units,V
Vertical Offset,0,0,0,,Vertical Offset,0
Vertical Scale,1,1,1,,Vertical Scale,0.02
Label,,,,,Label,
TIME,CH1,CH2,CH3,,TIME,REF1
-5.00000000000e-04,-5,2.96,2.52,,1.154e-03,0.054
-5.00000000000e-04,-5,2.92,2.52,,1.155e-03,0.054
-5.00000000000e-04,-5,2.92,2.52,,1.157e-03,0.054
-5.00000000000e-04,-5,2.92,2.52,,1.158e-03,0.054
-5.00000000000e-04,-5,2.92,2.52,,1.160e-03,0.054
-5.00000000000e-04,-5,2.92,2.52,,1.162e-03,0.054
-5.00000000000e-04,-5,2.88,2.52,,1.163e-03,0.054
-5.00000000000e-04,-5,2.88,2.52,,1.165e-03,0.054
-5.00000000000e-04,-5,2.88,2.52,,1.166e-03,0.054
-5.00000000000e-04,-5,2.88,2.52,,1.168e-03,0.054
-5.00000000000e-04,-5,2.88,2.52,,1.170e-03,0.0548
-5.00000000000e-04,-5,2.84,2.52,,1.171e-03,0.054
-5.00000000000e-04,-5,2.84,2.52,,1.173e-03,0.0548
-5.00000000000e-04,-5,2.84,2.52,,1.174e-03,0.054
-5.00000000000e-04,-5,2.84,2.52,,1.176e-03,0.054
-5.00000000000e-04,-5,2.84,2.52,,1.178e-03,0.054
-5.00000000000e-04,-5,2.84,2.52,,1.179e-03,0.0548
-5.00000000000e-04,-5,2.8,2.52,,1.181e-03,0.0548
-5.00000000000e-04,-5,2.8,2.52,,1.182e-03,0.0548
-5.00000000000e-04,-5,2.8,2.52,,1.184e-03,0.0548
-5.00000000000e-04,-5,2.8,2.52,,1.186e-03,0.0548
-5.00000000000e-04,-5,2.76,2.52,,1.187e-03,0.0548
-5.00000000000e-04,-5,2.8,2.52,,1.189e-03,0.054
-5.00000000000e-04,-5,2.76,2.52,,1.190e-03,0.054
-5.00000000000e-04,-5,2.76,2.52,,1.192e-03,0.0548
-5.00000000000e-04,-5,2.76,2.52,,1.194e-03,0.0548
-5.00000000000e-04,-5,2.76,2.52,,1.195e-03,0.0548
-5.00000000000e-04,-5,2.76,2.52,,1.197e-03,0.0548
-5.00000000000e-04,-5,2.72,2.52,,1.198e-03,0.0548
-5.00000000000e-04,-5,2.72,2.52,,1.200e-03,0.0548
-5.00000000000e-04,-5,2.68,2.52,,1.202e-03,0.0548
-5.00000000000e-04,-4.96,2.72,2.52,,1.203e-03,0.0548
-5.00000000000e-04,-5,2.72,2.52,,1.205e-03,0.0548
-5.00000000000e-04,-5,2.68,2.52,,1.206e-03,0.0548
-5.00000000000e-04,-5,2.68,2.52,,1.208e-03,0.0548
-5.00000000000e-04,-5,2.68,2.52,,1.210e-03,0.0548
-5.00000000000e-04,-5,2.68,2.52,,1.211e-03,0.0548
-5.00000000000e-04,-5,2.64,2.52,,1.213e-03,0.0548
-5.00000000000e-04,-5,2.64,2.52,,1.214e-03,0.0548
-5.00000000000e-04,-5,2.64,2.52,,1.216e-03,0.0548
-5.00000000000e-04,-5,2.64,2.56,,1.218e-03,0.0548
-5.00000000000e-04,-5,2.64,2.52,,1.219e-03,0.0548
-5.00000000000e-04,-5,2.64,2.56,,1.221e-03,0.0548
-5.00000000000e-04,-5,2.6,2.52,,1.222e-03,0.0548
-5.00000000000e-04,-5,2.6,2.52,,1.224e-03,0.0548
-5.00000000000e-04,-5,2.6,2.52,,1.226e-03,0.0548
-5.00000000000e-04,-5,2.56,2.52,,1.227e-03,0.0548
-5.00000000000e-04,-5,2.56,2.52,,1.229e-03,0.0548
-5.00000000000e-04,-5,2.56,2.52,,1.230e-03,0.0548
-5.00000000000e-04,-5,2.56,2.56,,1.232e-03,0.0548
-5.00000000000e-04,-5,2.56,2.52,,1.234e-03,0.0548
-5.00000000000e-04,-4.96,2.56,2.56,,1.235e-03,0.0548
-5.00000000000e-04,-5,2.56,2.52,,1.237e-03,0.0548
-5.00000000000e-04,-4.96,2.52,2.52,,1.238e-03,0.0548
-5.00000000000e-04,-5,2.48,2.52,,1.240e-03,0.0548
-5.00000000000e-04,-5,2.52,2.56,,1.242e-03,0.0548
-5.00000000000e-04,-5,2.52,2.56,,1.243e-03,0.0548
-5.00000000000e-04,-5,2.52,2.56,,1.245e-03,0.0548
-5.00000000000e-04,-5,2.52,2.52,,1.246e-03,0.0548
-5.00000000000e-04,-5,2.48,2.56,,1.248e-03,0.0548
-5.00000000000e-04,-5,2.48,2.52,,1.250e-03,0.0548
-5.00000000000e-04,-5,2.48,2.56,,1.251e-03,0.054
-5.00000000000e-04,-5,2.44,2.56,,1.253e-03,0.0548
-5.00000000000e-04,-5,2.44,2.56,,1.254e-03,0.0548
-5.00000000000e-04,-4.96,2.44,2.56,,1.256e-03,0.0548
-5.00000000000e-04,-5,2.44,2.56,,1.258e-03,0.0548
-5.00000000000e-04,-5,2.44,2.56,,1.259e-03,0.0548
-5.00000000000e-04,-5,2.44,2.56,,1.261e-03,0.0548
-5.00000000000e-04,-5,2.4,2.56,,1.262e-03,0.0548
-5.00000000000e-04,-5,2.4,2.56,,1.264e-03,0.0548
-5.00000000000e-04,-5,2.36,2.56,,1.266e-03,0.0548
-5.00000000000e-04,-5,2.36,2.56,,1.267e-03,0.0548
-5.00000000000e-04,-5,2.32,2.56,,1.269e-03,0.0548
-5.00000000000e-04,-5,2.32,2.56,,1.270e-03,0.0548
-5.00000000000e-04,-5,2.32,2.56,,1.272e-03,0.0548
-5.00000000000e-04,-5,2.32,2.56,,1.274e-03,0.0548
-5.00000000000e-04,-5,2.32,2.56,,1.275e-03,0.0548
-5.00000000000e-04,-5,2.32,2.56,,1.277e-03,0.0548
-5.00000000000e-04,-5,2.28,2.52,,1.278e-03,0.0548
-5.00000000000e-04,-5,2.28,2.56,,1.280e-03,0.0548
-5.00000000000e-04,-5,2.28,2.56,,1.282e-03,0.0548
-5.00000000000e-04,-5,2.28,2.56,,1.283e-03,0.054
-5.00000000000e-04,-5,2.24,2.52,,1.285e-03,0.054
-5.00000000000e-04,-5,2.24,2.56,,1.286e-03,0.054
-5.00000000000e-04,-4.96,2.24,2.52,,1.288e-03,0.0548
-5.00000000000e-04,-5,2.24,2.56,,1.290e-03,0.0548
-5.00000000000e-04,-5,2.2,2.56,,1.291e-03,0.0548
-5.00000000000e-04,-5,2.2,2.56,,1.293e-03,0.0548
-5.00000000000e-04,-5,2.2,2.56,,1.294e-03,0.054
-5.00000000000e-04,-5,2.16,2.56,,1.296e-03,0.0548
-5.00000000000e-04,-5,2.16,2.56,,1.298e-03,0.0548
-5.00000000000e-04,-5,2.16,2.56,,1.299e-03,0.0548
-5.00000000000e-04,-5,2.16,2.56,,1.301e-03,0.0548
-5.00000000000e-04,-5,2.16,2.56,,1.302e-03,0.054
-5.00000000000e-04,-5,2.16,2.56,,1.304e-03,0.054
-5.00000000000e-04,-4.96,2.12,2.56,,1.306e-03,0.0548
-5.00000000000e-04,-5,2.12,2.56,,1.307e-03,0.0548
-5.00000000000e-04,-5,2.12,2.56,,1.309e-03,0.0548
-5.00000000000e-04,-5,2.12,2.56,,1.310e-03,0.0548
-5.00000000000e-04,-5,2.08,2.56,,1.312e-03,0.054
-5.00000000000e-04,-5,2.12,2.56,,1.314e-03,0.054
-5.00000000000e-04,-5,2.08,2.56,,1.315e-03,0.0548
-5.00000000000e-04,-5,2.04,2.56,,1.317e-03,0.0548
-5.00000000000e-04,-5,2.08,2.56,,1.318e-03,0.054
-5.00000000000e-04,-5,2.04,2.56,,1.320e-03,0.054
-5.00000000000e-04,-5,2.08,2.56,,1.322e-03,0.054
-5.00000000000e-04,-5,2.04,2.56,,1.323e-03,0.054
-5.00000000000e-04,-5,2.04,2.56,,1.325e-03,0.054
-5.00000000000e-04,-5,2.04,2.56,,1.326e-03,0.054
-5.00000000000e-04,-5,2.04,2.56,,1.328e-03,0.054
-5.00000000000e-04,-4.96,2.04,2.56,,1.330e-03,0.054
-5.00000000000e-04,-5,2,2.56,,1.331e-03,0.054
-5.00000000000e-04,-5,2,2.56,,1.333e-03,0.054
-5.00000000000e-04,-5,1.96,2.56,,1.334e-03,0.054
-5.00000000000e-04,-5,2,2.56,,1.336e-03,0.054
-5.00000000000e-04,-5,2,2.56,,1.338e-03,0.054
-5.00000000000e-04,-5,2,2.56,,1.339e-03,0.054
-5.00000000000e-04,-4.96,2,2.56,,1.341e-03,0.054
-5.00000000000e-04,-5,1.96,2.56,,1.342e-03,0.054
-5.00000000000e-04,-5,1.96,2.56,,1.344e-03,0.0532
-5.00000000000e-04,-5,1.96,2.56,,1.346e-03,0.0532
-5.00000000000e-04,-5,1.96,2.56,,1.347e-03,0.054
-5.00000000000e-04,-5,1.96,2.56,,1.349e-03,0.054
-5.00000000000e-04,-5,1.96,2.56,,1.350e-03,0.054
-5.00000000000e-04,-5,1.96,2.56,,1.352e-03,0.054
-5.00000000000e-04,-5,1.96,2.56,,1.354e-03,0.054
-5.00000000000e-04,-5,1.96,2.56,,1.355e-03,0.054
-5.00000000000e-04,-5,1.96,2.56,,1.357e-03,0.054
-5.00000000000e-04,-5,1.92,2.56,,1.358e-03,0.054
-5.00000000000e-04,-5,1.96,2.56,,1.360e-03,0.0532
-5.00000000000e-04,-5,1.96,2.56,,1.362e-03,0.054
-5.00000000000e-04,-5,1.96,2.56,,1.363e-03,0.054
-5.00000000000e-04,-5,1.96,2.56,,1.365e-03,0.054
-5.00000000000e-04,-5,1.96,2.56,,1.366e-03,0.054
-5.00000000000e-04,-5,1.96,2.52,,1.368e-03,0.054
-5.00000000000e-04,-5,1.96,2.56,,1.370e-03,0.0532
-5.00000000000e-04,-5,1.96,2.56,,1.371e-03,0.0532
-5.00000000000e-04,-5,1.96,2.56,,1.373e-03,0.0532
-5.00000000000e-04,-5,1.92,2.56,,1.374e-03,0.0532
-5.00000000000e-04,-5,1.92,2.56,,1.376e-03,0.054
-5.00000000000e-04,-5,1.92,2.56,,1.378e-03,0.054
-5.00000000000e-04,-5,1.92,2.56,,1.379e-03,0.054
-5.00000000000e-04,-5,1.88,2.56,,1.381e-03,0.054
-5.00000000000e-04,-5,1.88,2.56,,1.382e-03,0.054
-5.00000000000e-04,-5,1.84,2.56,,1.384e-03,0.0532
-5.00000000000e-04,-5,1.84,2.56,,1.386e-03,0.0532
-5.00000000000e-04,-5,1.8,2.56,,1.387e-03,0.054
-5.00000000000e-04,-5,1.8,2.56,,1.389e-03,0.0532
-5.00000000000e-04,-5,1.76,2.56,,1.390e-03,0.0532
-5.00000000000e-04,-5,1.76,2.56,,1.392e-03,0.0532
-5.00000000000e-04,-5,1.72,2.56,,1.394e-03,0.0532
-5.00000000000e-04,-5,1.68,2.56,,1.395e-03,0.0524
-5.00000000000e-04,-5,1.68,2.52,,1.397e-03,0.0532
-5.00000000000e-04,-5,1.64,2.56,,1.398e-03,0.0532
-5.00000000000e-04,-5,1.64,2.56,,1.400e-03,0.0532
-5.00000000000e-04,-5,1.6,2.56,,1.402e-03,0.0524
-5.00000000000e-04,-5,1.56,2.56,,1.403e-03,0.0532
-5.00000000000e-04,-5,1.56,2.56,,1.405e-03,0.0532
-5.00000000000e-04,-5,1.56,2.56,,1.406e-03,0.0524
-5.00000000000e-04,-5,1.52,2.56,,1.408e-03,0.0524
-5.00000000000e-04,-4.96,1.52,2.56,,1.410e-03,0.0532
-5.00000000000e-04,-5,1.48,2.56,,1.411e-03,0.0532
-5.00000000000e-04,-4.96,1.48,2.56,,1.413e-03,0.0532
-5.00000000000e-04,-5,1.48,2.52,,1.414e-03,0.0532
-5.00000000000e-04,-5,1.48,2.56,,1.416e-03,0.0532
-5.00000000000e-04,-5,1.44,2.56,,1.418e-03,0.0524
-5.00000000000e-04,-5,1.44,2.56,,1.419e-03,0.0532
-5.00000000000e-04,-5,1.4,2.56,,1.421e-03,0.0532
-5.00000000000e-04,-5,1.4,2.56,,1.422e-03,0.0532
-5.00000000000e-04,-5,1.36,2.56,,1.424e-03,0.0532
-5.00000000000e-04,-5,1.36,2.56,,1.426e-03,0.0532
-5.00000000000e-04,-5,1.36,2.56,,1.427e-03,0.0532
-5.00000000000e-04,-5,1.32,2.56,,1.429e-03,0.0532
-5.00000000000e-04,-5,1.32,2.56,,1.430e-03,0.0532
-5.00000000000e-04,-5,1.32,2.56,,1.432e-03,0.0532
-5.00000000000e-04,-5,1.28,2.56,,1.434e-03,0.0532
-5.00000000000e-04,-5,1.28,2.56,,1.435e-03,0.0532
-5.00000000000e-04,-5,1.24,2.56,,1.437e-03,0.0532
-5.00000000000e-04,-4.96,1.24,2.56,,1.438e-03,0.0524
-5.00000000000e-04,-5,1.24,2.56,,1.440e-03,0.0532
-5.00000000000e-04,-4.96,1.24,2.6,,1.442e-03,0.0524
-5.00000000000e-04,-5,1.2,2.56,,1.443e-03,0.0524
-5.00000000000e-04,-5,1.2,2.56,,1.445e-03,0.0524
-5.00000000000e-04,-5,1.2,2.56,,1.446e-03,0.0524
-5.00000000000e-04,-5,1.16,2.56,,1.448e-03,0.0524
-5.00000000000e-04,-5,1.16,2.56,,1.450e-03,0.0532
-5.00000000000e-04,-4.96,1.12,2.56,,1.451e-03,0.0532
-5.00000000000e-04,-4.96,1.16,2.56,,1.453e-03,0.0524
-5.00000000000e-04,-5,1.12,2.56,,1.454e-03,0.0524
-5.00000000000e-04,-5,1.12,2.56,,1.456e-03,0.0524
-5.00000000000e-04,-5,1.12,2.56,,1.458e-03,0.0532
-5.00000000000e-04,-5,1.08,2.56,,1.459e-03,0.0524
-5.00000000000e-04,-5,1.08,2.56,,1.461e-03,0.0524
-5.00000000000e-04,-5,1.08,2.56,,1.462e-03,0.0524
-5.00000000000e-04,-5,1.04,2.56,,1.464e-03,0.0524
-5.00000000000e-04,-5,1.04,2.56,,1.466e-03,0.0524
-5.00000000000e-04,-5,1.04,2.6,,1.467e-03,0.0524
-5.00000000000e-04,-5,1.04,2.56,,1.469e-03,0.0524
-5.00000000000e-04,-5,1.04,2.56,,1.470e-03,0.0524
-5.00000000000e-04,-5,1,2.56,,1.472e-03,0.0524
-5.00000000000e-04,-5,1,2.56,,1.474e-03,0.0524
-5.00000000000e-04,-5,1,2.56,,1.475e-03,0.0524
-5.00000000000e-04,-5,0.96,2.56,,1.477e-03,0.0524
-5.00000000000e-04,-5,1,2.56,,1.478e-03,0.0524
-5.00000000000e-04,-5,1,2.56,,1.480e-03,0.0524
-5.00000000000e-04,-5,0.96,2.6,,1.482e-03,0.0524
-5.00000000000e-04,-4.96,0.96,2.6,,1.483e-03,0.0524
-5.00000000000e-04,-5,0.96,2.56,,1.485e-03,0.0524
-5.00000000000e-04,-5,0.96,2.56,,1.486e-03,0.0524
-5.00000000000e-04,-5,0.96,2.56,,1.488e-03,0.0524
-5.00000000000e-04,-4.96,0.96,2.6,,1.490e-03,0.0524
-5.00000000000e-04,-5,0.96,2.56,,1.491e-03,0.0516
-5.00000000000e-04,-5,0.96,2.6,,1.493e-03,0.0524
-5.00000000000e-04,-5,0.96,2.56,,1.494e-03,0.0524
-5.00000000000e-04,-5,0.96,2.56,,1.496e-03,0.0524
-5.00000000000e-04,-5,0.92,2.56,,1.498e-03,0.0524
-5.00000000000e-04,-5,0.92,2.56,,1.499e-03,0.0524
-5.00000000000e-04,-4.96,0.92,2.56,,1.501e-03,0.0524
-5.00000000000e-04,-5,0.92,2.56,,1.502e-03,0.0524
-5.00000000000e-04,-5,0.92,2.56,,1.504e-03,0.0524
-5.00000000000e-04,-5,0.88,2.56,,1.506e-03,0.0524
-5.00000000000e-04,-5,0.88,2.56,,1.507e-03,0.0524
-5.00000000000e-04,-5,0.84,2.6,,1.509e-03,0.0524
-5.00000000000e-04,-5,0.84,2.56,,1.510e-03,0.0524
-5.00000000000e-04,-5,0.84,2.6,,1.512e-03,0.0524
-5.00000000000e-04,-4.96,0.84,2.56,,1.514e-03,0.0524
-5.00000000000e-04,-5,0.8,2.6,,1.515e-03,0.0524
-5.00000000000e-04,-5,0.8,2.56,,1.517e-03,0.0516
-5.00000000000e-04,-5,0.76,2.56,,1.518e-03,0.0516
-5.00000000000e-04,-5,0.76,2.6,,1.520e-03,0.0524
-5.00000000000e-04,-5,0.72,2.56,,1.522e-03,0.0524
-5.00000000000e-04,-5,0.72,2.56,,1.523e-03,0.0516
-5.00000000000e-04,-5,0.72,2.6,,1.525e-03,0.0516
-5.00000000000e-04,-4.96,0.68,2.56,,1.526e-03,0.0516
-5.00000000000e-04,-4.96,0.68,2.6,,1.528e-03,0.0516
-5.00000000000e-04,-5,0.68,2.6,,1.530e-03,0.0516
-5.00000000000e-04,-5,0.68,2.6,,1.531e-03,0.0516
-5.00000000000e-04,-5,0.64,2.6,,1.533e-03,0.0516
-5.00000000000e-04,-5,0.64,2.56,,1.534e-03,0.0516
-5.00000000000e-04,-5,0.64,2.6,,1.536e-03,0.0516
-5.00000000000e-04,-5,0.64,2.6,,1.538e-03,0.0516
-5.00000000000e-04,-5,0.6,2.56,,1.539e-03,0.0508
-5.00000000000e-04,-4.96,0.6,2.6,,1.541e-03,0.0516
-5.00000000000e-04,-4.96,0.6,2.6,,1.542e-03,0.0516
-5.00000000000e-04,-5,0.6,2.56,,1.544e-03,0.0516
-5.00000000000e-04,-5,0.56,2.6,,1.546e-03,0.0516
-5.00000000000e-04,-5,0.6,2.6,,1.547e-03,0.0516
-5.00000000000e-04,-5,0.56,2.56,,1.549e-03,0.0516
-5.00000000000e-04,-4.96,0.56,2.56,,1.550e-03,0.0516
-5.00000000000e-04,-5,0.56,2.56,,1.552e-03,0.0508
-5.00000000000e-04,-4.96,0.56,2.6,,1.554e-03,0.0508
-5.00000000000e-04,-5,0.56,2.6,,1.555e-03,0.0516
-5.00000000000e-04,-4.96,0.56,2.6,,1.557e-03,0.0508
-5.00000000000e-04,-5,0.6,2.6,,1.558e-03,0.0508
-5.00000000000e-04,-5,0.56,2.6,,1.560e-03,0.0508
-5.00000000000e-04,-5,0.6,2.6,,1.562e-03,0.0508
-5.00000000000e-04,-5,0.6,2.56,,1.563e-03,0.0508
-5.00000000000e-04,-5,0.6,2.6,,1.565e-03,0.0508
-5.00000000000e-04,-5,0.6,2.6,,1.566e-03,0.0508
-5.00000000000e-04,-5,0.64,2.6,,1.568e-03,0.0508
-5.00000000000e-04,-4.96,0.68,2.6,,1.570e-03,0.0508
-5.00000000000e-04,-5,0.68,2.6,,1.571e-03,0.0508
-5.00000000000e-04,-4.96,0.72,2.6,,1.573e-03,0.0508
-5.00000000000e-04,-5,0.76,2.6,,1.574e-03,0.0508
-5.00000000000e-04,-4.96,0.8,2.6,,1.576e-03,0.0508
-5.00000000000e-04,-4.96,0.84,2.6,,1.578e-03,0.0508
-5.00000000000e-04,-4.96,0.88,2.6,,1.579e-03,0.0508
-5.00000000000e-04,-5,0.96,2.6,,1.581e-03,0.0508
-5.00000000000e-04,-5,1.04,2.6,,1.582e-03,0.0508
-5.00000000000e-04,-4.96,1.12,2.6,,1.584e-03,0.0508
-5.00000000000e-04,-4.96,1.16,2.6,,1.586e-03,0.0508
-5.00000000000e-04,-4.96,1.24,2.6,,1.587e-03,0.0508
-5.00000000000e-04,-4.96,1.32,2.6,,1.589e-03,0.0508
-5.00000000000e-04,-4.96,1.36,2.6,,1.590e-03,0.0508
-5.00000000000e-04,-4.96,1.4,2.6,,1.592e-03,0.0508
-5.00000000000e-04,-4.96,1.4,2.56,,1.594e-03,0.0508
-5.00000000000e-04,-4.96,1.44,2.6,,1.595e-03,0.0508
-5.00000000000e-04,-4.96,1.44,2.6,,1.597e-03,0.05
-5.00000000000e-04,-4.96,1.4,2.6,,1.598e-03,0.0508
-5.00000000000e-04,-4.96,1.36,2.6,,1.600e-03,0.0508
-5.00000000000e-04,-5,1.32,2.6,,1.602e-03,0.0508
-5.00000000000e-04,-4.96,1.28,2.6,,1.603e-03,0.0508
-5.00000000000e-04,-5,1.24,2.6,,1.605e-03,0.0508
-5.00000000000e-04,-5,1.16,2.6,,1.606e-03,0.05
-5.00000000000e-04,-4.96,1.08,2.6,,1.608e-03,0.0508
-5.00000000000e-04,-4.96,1,2.6,,1.610e-03,0.05
-5.00000000000e-04,-5,0.96,2.6,,1.611e-03,0.0508
-5.00000000000e-04,-4.96,0.88,2.6,,1.613e-03,0.0508
-5.00000000000e-04,-4.96,0.8,2.6,,1.614e-03,0.0508
-5.00000000000e-04,-4.96,0.76,2.6,,1.616e-03,0.0508
-5.00000000000e-04,-4.96,0.68,2.6,,1.618e-03,0.05
-5.00000000000e-04,-4.96,0.64,2.6,,1.619e-03,0.0508
-5.00000000000e-04,-5,0.56,2.6,,1.621e-03,0.05
-5.00000000000e-04,-4.96,0.52,2.6,,1.622e-03,0.05
-5.00000000000e-04,-4.96,0.48,2.6,,1.624e-03,0.0508
-5.00000000000e-04,-5,0.44,2.6,,1.626e-03,0.05
-5.00000000000e-04,-5,0.4,2.6,,1.627e-03,0.05
-5.00000000000e-04,-4.96,0.36,2.6,,1.629e-03,0.05
-5.00000000000e-04,-4.96,0.32,2.6,,1.630e-03,0.05
-5.00000000000e-04,-4.96,0.28,2.6,,1.632e-03,0.0492
-5.00000000000e-04,-4.96,0.28,2.6,,1.634e-03,0.05
-5.00000000000e-04,-4.96,0.24,2.6,,1.635e-03,0.05
-5.00000000000e-04,-4.96,0.2,2.6,,1.637e-03,0.05
-5.00000000000e-04,-4.96,0.16,2.6,,1.638e-03,0.05
-5.00000000000e-04,-4.96,0.16,2.6,,1.640e-03,0.05
-5.00000000000e-04,-4.96,0.12,2.6,,1.642e-03,0.05
-5.00000000000e-04,-4.96,0.12,2.6,,1.643e-03,0.05
-5.00000000000e-04,-4.96,0.08,2.6,,1.645e-03,0.05
-5.00000000000e-04,-5,0.08,2.56,,1.646e-03,0.05
-5.00000000000e-04,-4.96,0.08,2.6,,1.648e-03,0.05
-5.00000000000e-04,-4.96,0.04,2.6,,1.650e-03,0.0492
-5.00000000000e-04,-4.96,0,2.6,,1.651e-03,0.05
-5.00000000000e-04,-5,0,2.56,,1.653e-03,0.0492
-5.00000000000e-04,-5,0,2.6,,1.654e-03,0.0492
-5.00000000000e-04,-4.96,0,2.6,,1.656e-03,0.0492
-5.00000000000e-04,-4.96,0,2.6,,1.658e-03,0.0492
-5.00000000000e-04,-4.96,-0.04,2.6,,1.659e-03,0.05
-5.00000000000e-04,-4.96,-0.04,2.6,,1.661e-03,0.05
-5.00000000000e-04,-4.96,-0.04,2.6,,1.662e-03,0.05
-5.00000000000e-04,-4.96,-0.04,2.6,,1.664e-03,0.0492
-5.00000000000e-04,-4.96,-0.08,2.56,,1.666e-03,0.0492
-5.00000000000e-04,-4.96,-0.08,2.6,,1.667e-03,0.0492
-5.00000000000e-04,-4.96,-0.04,2.6,,1.669e-03,0.05
-5.00000000000e-04,-4.96,-0.08,2.6,,1.670e-03,0.0492
-5.00000000000e-04,-4.96,-0.04,2.56,,1.672e-03,0.0492
-5.00000000000e-04,-4.96,-0.04,2.6,,1.674e-03,0.05
-5.00000000000e-04,-4.96,-0.04,2.6,,1.675e-03,0.0492
-5.00000000000e-04,-4.96,-0.04,2.6,,1.677e-03,0.0492
-5.00000000000e-04,-4.96,-0.04,2.6,,1.678e-03,0.0492
-5.00000000000e-04,-4.96,-0.04,2.6,,1.680e-03,0.0492
-5.00000000000e-04,-4.96,-0.04,2.6,,1.682e-03,0.0492
-5.00000000000e-04,-4.96,-0.04,2.6,,1.683e-03,0.0492
-5.00000000000e-04,-4.96,0,2.6,,1.685e-03,0.0492
-5.00000000000e-04,-4.96,0,2.6,,1.686e-03,0.0492
-5.00000000000e-04,-4.96,0.04,2.6,,1.688e-03,0.0492
-5.00000000000e-04,-4.92,0.04,2.6,,1.690e-03,0.0484
-5.00000000000e-04,-4.92,0.08,2.6,,1.691e-03,0.0492
-5.00000000000e-04,-4.92,0.12,2.6,,1.693e-03,0.0492
-5.00000000000e-04,-4.92,0.12,2.6,,1.694e-03,0.0492
-5.00000000000e-04,-4.92,0.16,2.6,,1.696e-03,0.0492
-5.00000000000e-04,-4.88,0.2,2.6,,1.698e-03,0.0492
-5.00000000000e-04,-4.92,0.28,2.6,,1.699e-03,0.0492
-5.00000000000e-04,-4.88,0.32,2.6,,1.701e-03,0.0492
-5.00000000000e-04,-4.88,0.4,2.6,,1.702e-03,0.0492
-5.00000000000e-04,-4.88,0.48,2.6,,1.704e-03,0.0484
-5.00000000000e-04,-4.88,0.52,2.6,,1.706e-03,0.0492
-5.00000000000e-04,-4.84,0.64,2.6,,1.707e-03,0.0492
-5.00000000000e-04,-4.84,0.72,2.56,,1.709e-03,0.0492
-5.00000000000e-04,-4.76,0.8,2.6,,1.710e-03,0.0492
-5.00000000000e-04,-4.72,0.92,2.6,,1.712e-03,0.0492
-5.00000000000e-04,-4.64,1,2.6,,1.714e-03,0.0484
-5.00000000000e-04,-4.52,1.08,2.6,,1.715e-03,0.0492
-5.00000000000e-04,-4.4,1.16,2.6,,1.717e-03,0.0492
-5.00000000000e-04,-4.24,1.24,2.56,,1.718e-03,0.0492
-5.00000000000e-04,-4.16,1.28,2.6,,1.720e-03,0.0492
-5.00000000000e-04,-4.16,1.32,2.6,,1.722e-03,0.0492
-5.00000000000e-04,-4.16,1.32,2.6,,1.723e-03,0.0492
-5.00000000000e-04,-4.24,1.32,2.6,,1.725e-03,0.0492
-5.00000000000e-04,-4.36,1.28,2.64,,1.726e-03,0.0484
-5.00000000000e-04,-4.48,1.24,2.6,,1.728e-03,0.0492
-5.00000000000e-04,-4.6,1.2,2.56,,1.730e-03,0.0492
-5.00000000000e-04,-4.68,1.12,2.56,,1.731e-03,0.0492
-5.00000000000e-04,-4.76,1.08,2.64,,1.733e-03,0.0484
-5.00000000000e-04,-4.8,0.96,2.6,,1.734e-03,0.0484
-5.00000000000e-04,-4.88,0.88,2.6,,1.736e-03,0.0484
-5.00000000000e-04,-4.92,0.8,2.6,,1.738e-03,0.0484
-5.00000000000e-04,-4.92,0.72,2.6,,1.739e-03,0.0484
-5.00000000000e-04,-4.92,0.6,2.64,,1.741e-03,0.0484
-5.00000000000e-04,-4.96,0.52,2.6,,1.742e-03,0.0484
-5.00000000000e-04,-4.96,0.44,2.6,,1.744e-03,0.0476
-5.00000000000e-04,-4.96,0.36,2.56,,1.746e-03,0.0484
-5.00000000000e-04,-4.96,0.28,2.6,,1.747e-03,0.0484
-5.00000000000e-04,-4.96,0.2,2.6,,1.749e-03,0.0484
-5.00000000000e-04,-4.96,0.12,2.6,,1.750e-03,0.0484
-5.00000000000e-04,-4.96,0.04,2.6,,1.752e-03,0.0484
-5.00000000000e-04,-5,0,2.6,,1.754e-03,0.0484
-5.00000000000e-04,-4.96,-0.04,2.64,,1.755e-03,0.0484
-5.00000000000e-04,-5,-0.12,2.6,,1.757e-03,0.0484
-5.00000000000e-04,-4.96,-0.16,2.64,,1.758e-03,0.0484
-5.00000000000e-04,-5,-0.24,2.6,,1.760e-03,0.0484
-5.00000000000e-04,-5,-0.28,2.6,,1.762e-03,0.0476
-5.00000000000e-04,-5,-0.32,2.6,,1.763e-03,0.0484
-5.00000000000e-04,-5,-0.36,2.6,,1.765e-03,0.0484
-5.00000000000e-04,-5,-0.4,2.64,,1.766e-03,0.0484
-5.00000000000e-04,-5,-0.44,2.6,,1.768e-03,0.0484
-5.00000000000e-04,-5,-0.48,2.6,,1.770e-03,0.0484
-5.00000000000e-04,-5,-0.52,2.6,,1.771e-03,0.0484
